{
  "kind": "SealedSecret",
  "apiVersion": "bitnami.com/v1alpha1",
  "metadata": {
    "name": "accounting-sec",
    "namespace": "default",
    "creationTimestamp": null
  },
  "spec": {
    "template": {
      "metadata": {
        "name": "accounting-sec",
        "namespace": "default",
        "creationTimestamp": null
      }
    },
    "encryptedData": {
      "mysqlPassword": "{{ .Values.secrets.mysqlPassword }}",
      "mysqlUsername": "{{ .Values.secrets.mysqlUsername }}",
      "s3AccessKey": "{{ .Values.secrets.s3AccessKey }}",
      "s3SecretKey": "{{ .Values.secrets.s3SecretKey }}"
    }
  }
}
